…
``` r
drug_import= function(drug, tablenum,html){
  drug_df = 
  html |> 
  html_table() |> 
  nth(tablenum) |>
  slice(-1) %>% 
  mutate(drug= drug)
  return(drug_df)
}

drug_import('cocaine',4,nsduh_html)
```

    ## # A tibble: 56 × 17
    ##    State     `12+(2013-2014)` `12+(2014-2015)` `12+(P Value)` `12-17(2013-2014)`
    ##    <chr>     <chr>            <chr>            <chr>          <chr>             
    ##  1 Total U.… 1.66a            1.76             0.040          0.60              
    ##  2 Northeast 1.94a            2.18             0.012          0.60              
    ##  3 Midwest   1.37             1.43             0.282          0.48              
    ##  4 South     1.45b            1.56             0.067          0.53              
    ##  5 West      2.03             2.05             0.816          0.82              
    ##  6 Alabama   1.23             1.22             0.995          0.42              
    ##  7 Alaska    1.54a            2.00             0.010          0.51              
    ##  8 Arizona   2.25             2.29             0.861          1.01              
    ##  9 Arkansas  0.93             1.07             0.208          0.41              
    ## 10 Californ… 2.14             2.16             0.883          0.89              
    ## # ℹ 46 more rows
    ## # ℹ 12 more variables: `12-17(2014-2015)` <chr>, `12-17(P Value)` <chr>,
    ## #   `18-25(2013-2014)` <chr>, `18-25(2014-2015)` <chr>, `18-25(P Value)` <chr>,
    ## #   `26+(2013-2014)` <chr>, `26+(2014-2015)` <chr>, `26+(P Value)` <chr>,
    ## #   `18+(2013-2014)` <chr>, `18+(2014-2015)` <chr>, `18+(P Value)` <chr>,
    ## #   drug <chr>
